^C:\USERS\USER\DOCUMENTS\VISUAL STUDIO 2017\PROJECTS\ЗАДАЧА С ПАРЫ ОП\ЗАДАЧА С ПАРЫ ОП\DEBUG\FUNCTIONS.OBJ|C:\USERS\USER\DOCUMENTS\VISUAL STUDIO 2017\PROJECTS\ЗАДАЧА С ПАРЫ ОП\ЗАДАЧА С ПАРЫ ОП\DEBUG\SOURCE.OBJ
C:\USERS\USER\DOCUMENTS\VISUAL STUDIO 2017\PROJECTS\Задача с пары ОП\DEBUG\Задача с пары ОП.ILK
C:\USERS\USER\DOCUMENTS\VISUAL STUDIO 2017\PROJECTS\Задача с пары ОП\DEBUG\Задача с пары ОП.EXE
C:\USERS\USER\DOCUMENTS\VISUAL STUDIO 2017\PROJECTS\ЗАДАЧА С ПАРЫ ОП\DEBUG\ЗАДАЧА С ПАРЫ ОП.PDB
